1 10 20
100 200 125
201 210 89
900 1000 174
924013 935365 476
39923 501252 449
656233 839905 525
347405 578133 470
480517 623876 470
222169 932803 525
525433 715608 509
405278 917514 525
454032 594703 470
311703 792153 509
529592 709722 509
456648 840091 525
681176 690376 398
296525 557147 470
466307 688475 509
66043 98246 351
16999 295594 443
318969 900887 525
120232 596886 470
171503 187190 365
724290 810366 468
360545 422867 449
727437 756161 424
51575 960257 525
116691 654619 509
145326 269396 443
658886 864042 525
62163 525166 470
180300 928906 525
141623 716570 509
285248 763885 509
153016 379405 443
560190 804799 509
473909 735737 509
60467 848264 525
173058 322157 443
398476 966658 525
587962 706618 509
335272 945647 525
418080 733991 509
401796 858987 525
62592 163263 383
274435 326566 389
339583 975064 525
296615 444231 449
580428 900120 525
164865 186248 365
49607 617570 470
55838 969676 525
589460 915337 525
197058 640725 509
223856 655645 509
346121 698796 509
673041 695212 442
1900 955725 525
17867 128950 354
172308 281694 443
132530 500003 449
424385 918063 525
270074 643026 509
31687 136826 354
351880 833770 509
231945 554742 470
37033 750558 509
140535 355457 443
454677 507848 444
222958 520662 470
667326 878462 525
826377 956344 525
628601 998402 525
819536 843963 525
101003 485012 449
380501 822415 509
6410 392845 443
323813 505188 449
93690 487520 449
922873 988431 507
661520 742389 504
104416 478552 449
528983 723279 509
773683 984397 525
590692 944172 525
66491 619023 470
237060 519071 470
363721 918397 525
63180 191907 383
911636 918466 401
609055 793041 509
527466 538227 377
145593 447567 449
459998 687788 509
332503 954117 525
306328 995706 525
292444 914948 525
161872 359695 443
357330 937717 525
867155 956398 507
672993 807285 504
48454 877512 525
305712 639493 509
50979 874328 525
298081 881968 525
238290 669260 509
560089 806887 509
62121 188839 383
735342 810682 468
506440 999696 525
733655 841426 525
144886 246052 443
152730 368432 443
277632 515172 470
503974 516651 470
19820 113903 354
262271 712987 509
754392 818524 468
108668 533054 470
10429 491063 449
5506 61629 340
252516 843508 525
433662 726676 509
611058 850486 525
105694 654655 509
248751 788027 509
747394 791127 468
533788 822161 509
476142 613326 470
356513 682943 509
426818 941317 525
619085 846519 525
225490 642650 509
